<?xml version="1.0" encoding="UTF-8" standalone="no"?>
<svg
   xmlns:dc="http://purl.org/dc/elements/1.1/"
   xmlns:cc="http://creativecommons.org/ns#"
   xmlns:rdf="http://www.w3.org/1999/02/22-rdf-syntax-ns#"
   xmlns:svg="http://www.w3.org/2000/svg"
   xmlns="http://www.w3.org/2000/svg"
   xmlns:sodipodi="http://sodipodi.sourceforge.net/DTD/sodipodi-0.dtd"
   xmlns:inkscape="http://www.inkscape.org/namespaces/inkscape"
   viewBox="0 0 43.81 31.09"
   version="1.1"
   id="svg1807"
   sodipodi:docname="cam.svg"
   inkscape:version="1.0.2 (e86c870879, 2021-01-15)">
  <metadata
     id="metadata1811">
    <rdf:RDF>
      <cc:Work
         rdf:about="">
        <dc:format>image/svg+xml</dc:format>
        <dc:type
           rdf:resource="http://purl.org/dc/dcmitype/StillImage" />
      </cc:Work>
    </rdf:RDF>
  </metadata>
  <sodipodi:namedview
     pagecolor="#ffffff"
     bordercolor="#666666"
     borderopacity="1"
     objecttolerance="10"
     gridtolerance="10"
     guidetolerance="10"
     inkscape:pageopacity="0"
     inkscape:pageshadow="2"
     inkscape:window-width="1586"
     inkscape:window-height="1159"
     id="namedview1809"
     showgrid="false"
     inkscape:zoom="13.139273"
     inkscape:cx="11.400573"
     inkscape:cy="12.256392"
     inkscape:window-x="0"
     inkscape:window-y="27"
     inkscape:window-maximized="0"
     inkscape:current-layer="svg1807"
     inkscape:document-rotation="0" />
  <defs
     id="defs1799">
    <style
       id="style1797">.cls-1{fill:#a2b79e;}</style>
  </defs>
  <g
     id="Layer_2"
     data-name="Layer 2"
     style="fill:#46aebb;fill-opacity:1">
    <g
       id="Layer_4"
       data-name="Layer 4"
       style="fill:#46aebb;fill-opacity:1">
      <path
         class="cls-1"
         d="M33.33,10.39V20a48,48,0,0,0,6.26,3.27c2.29,1,2.9,1,3.35.73s.49-1,.8-6.4c0-.47.07-1.34.07-2.46,0-1,0-1.67-.07-2.34-.25-4.87-.4-5.33-.8-5.61-.56-.38-1.3-.21-2.51.18A41.52,41.52,0,0,0,33.33,10.39Z"
         id="path1801"
         style="fill:#46aebb;fill-opacity:1" />
      <path
         class="cls-1"
         d="M23,31.09H8a8,8,0,0,1-8-8V8.1A8.53,8.53,0,0,1,2.34,2.44,8.94,8.94,0,0,1,9.81.09H23a8,8,0,0,1,8,8v15A8,8,0,0,1,23,31.09Z"
         id="path1803"
         style="fill:#46aebb;fill-opacity:1" />
    </g>
  </g>
</svg>
