<?xml version="1.0" encoding="UTF-8" standalone="no"?>
<svg
   xmlns:dc="http://purl.org/dc/elements/1.1/"
   xmlns:cc="http://creativecommons.org/ns#"
   xmlns:rdf="http://www.w3.org/1999/02/22-rdf-syntax-ns#"
   xmlns:svg="http://www.w3.org/2000/svg"
   xmlns="http://www.w3.org/2000/svg"
   xmlns:sodipodi="http://sodipodi.sourceforge.net/DTD/sodipodi-0.dtd"
   xmlns:inkscape="http://www.inkscape.org/namespaces/inkscape"
   viewBox="0 0 28.841649 28.335937"
   version="1.1"
   id="svg12"
   sodipodi:docname="speakeroff.svg"
   inkscape:version="1.0.2 (e86c870879, 2021-01-15)"
   width="28.84165"
   height="28.335938">
  <metadata
     id="metadata16">
    <rdf:RDF>
      <cc:Work
         rdf:about="">
        <dc:format>image/svg+xml</dc:format>
        <dc:type
           rdf:resource="http://purl.org/dc/dcmitype/StillImage" />
        <dc:title></dc:title>
      </cc:Work>
    </rdf:RDF>
  </metadata>
  <sodipodi:namedview
     pagecolor="#ffffff"
     bordercolor="#666666"
     borderopacity="1"
     objecttolerance="10"
     gridtolerance="10"
     guidetolerance="10"
     inkscape:pageopacity="0"
     inkscape:pageshadow="2"
     inkscape:window-width="1763"
     inkscape:window-height="1154"
     id="namedview14"
     showgrid="false"
     inkscape:zoom="18.581738"
     inkscape:cx="20.129944"
     inkscape:cy="13.126134"
     inkscape:window-x="261"
     inkscape:window-y="170"
     inkscape:window-maximized="0"
     inkscape:current-layer="svg12"
     inkscape:document-rotation="0" />
  <defs
     id="defs4">
    <style
       id="style2">.cls-1{fill:#a2b79e;}</style>
  </defs>
  <rect
     style="opacity:1;fill:#b76c67;fill-opacity:1;fill-rule:evenodd;stroke:none;stroke-width:46.9107;stroke-linejoin:bevel"
     id="rect858"
     width="5.1393671"
     height="14.943867"
     x="0"
     y="7.4747095"
     ry="1.168998" />
  <path
     style="fill:#b76c67;fill-opacity:1;stroke:none;stroke-width:1.57147px;stroke-linecap:butt;stroke-linejoin:miter;stroke-opacity:1"
     d="m 6.2968234,18.60196 -0.00418,-8.032373 c 0,0 8.3967746,-12.3298598 10.3600056,-10.35546908 1.423029,1.59127748 1.05677,8.44627648 1.057125,14.03143208 3.81e-4,5.984776 0.29788,12.371151 -1.204413,13.831667 C 14.570342,30.196275 6.2968318,18.60196 6.2968318,18.60196 Z"
     id="path870"
     sodipodi:nodetypes="cccsccc" />
</svg>
