<?xml version="1.0" encoding="UTF-8" standalone="no"?>
<svg
   xmlns:dc="http://purl.org/dc/elements/1.1/"
   xmlns:cc="http://creativecommons.org/ns#"
   xmlns:rdf="http://www.w3.org/1999/02/22-rdf-syntax-ns#"
   xmlns:svg="http://www.w3.org/2000/svg"
   xmlns="http://www.w3.org/2000/svg"
   xmlns:sodipodi="http://sodipodi.sourceforge.net/DTD/sodipodi-0.dtd"
   xmlns:inkscape="http://www.inkscape.org/namespaces/inkscape"
   width="24.968"
   height="24.968"
   viewBox="0 0 24.968 24.968"
   version="1.1"
   id="svg994"
   sodipodi:docname="bell.svg"
   inkscape:version="1.0.2 (e86c870879, 2021-01-15)">
  <metadata
     id="metadata998">
    <rdf:RDF>
      <cc:Work
         rdf:about="">
        <dc:format>image/svg+xml</dc:format>
        <dc:type
           rdf:resource="http://purl.org/dc/dcmitype/StillImage" />
        <dc:title></dc:title>
      </cc:Work>
    </rdf:RDF>
  </metadata>
  <sodipodi:namedview
     pagecolor="#ffffff"
     bordercolor="#666666"
     borderopacity="1"
     objecttolerance="10"
     gridtolerance="10"
     guidetolerance="10"
     inkscape:pageopacity="0"
     inkscape:pageshadow="2"
     inkscape:window-width="1633"
     inkscape:window-height="1185"
     id="namedview996"
     showgrid="false"
     inkscape:pagecheckerboard="true"
     inkscape:zoom="32.721883"
     inkscape:cx="11.3125"
     inkscape:cy="12.484"
     inkscape:window-x="0"
     inkscape:window-y="27"
     inkscape:window-maximized="0"
     inkscape:current-layer="svg994" />
  <defs
     id="defs986">
    <style
       id="style984">.a{opacity:0.892;}.b{fill:none;stroke:#fff;stroke-linecap:round;stroke-linejoin:round;stroke-width:1.5px;}</style>
  </defs>
  <g
     class="a"
     transform="translate(1.9056842,0.75)"
     id="g992">
    <path
       class="b"
       d="m 22.1,10.042 a 7.042,7.042 0 1 0 -14.083,0 C 8.021,18.257 4.5,20.6 4.5,20.6 h 21.125 c 0,0 -3.525,-2.343 -3.525,-10.558"
       transform="translate(-4.5,-3)"
       id="path988" />
    <path
       class="b"
       d="m 19.466,31.5 a 2.347,2.347 0 0 1 -4.061,0"
       transform="translate(-6.873,-9.201)"
       id="path990" />
  </g>
</svg>
