<?xml version="1.0" encoding="UTF-8" standalone="no"?>
<svg
   xmlns:dc="http://purl.org/dc/elements/1.1/"
   xmlns:cc="http://creativecommons.org/ns#"
   xmlns:rdf="http://www.w3.org/1999/02/22-rdf-syntax-ns#"
   xmlns:svg="http://www.w3.org/2000/svg"
   xmlns="http://www.w3.org/2000/svg"
   xmlns:sodipodi="http://sodipodi.sourceforge.net/DTD/sodipodi-0.dtd"
   xmlns:inkscape="http://www.inkscape.org/namespaces/inkscape"
   viewBox="0 0 667.33 667.32999"
   version="1.1"
   id="svg10"
   sodipodi:docname="plan.svg"
   width="667.33002"
   height="667.33002"
   inkscape:version="1.0.2 (e86c870879, 2021-01-15)">
  <metadata
     id="metadata14">
    <rdf:RDF>
      <cc:Work
         rdf:about="">
        <dc:format>image/svg+xml</dc:format>
        <dc:type
           rdf:resource="http://purl.org/dc/dcmitype/StillImage" />
        <dc:title></dc:title>
      </cc:Work>
    </rdf:RDF>
  </metadata>
  <sodipodi:namedview
     pagecolor="#ffffff"
     bordercolor="#666666"
     borderopacity="1"
     objecttolerance="10"
     gridtolerance="10"
     guidetolerance="10"
     inkscape:pageopacity="0"
     inkscape:pageshadow="2"
     inkscape:window-width="702"
     inkscape:window-height="480"
     id="namedview12"
     showgrid="false"
     inkscape:pagecheckerboard="true"
     inkscape:zoom="0.47965512"
     inkscape:cx="231.02727"
     inkscape:cy="373.87123"
     inkscape:window-x="0"
     inkscape:window-y="27"
     inkscape:window-maximized="0"
     inkscape:current-layer="svg10" />
  <defs
     id="defs4">
    <style
       id="style2">.cls-1{fill:#fff;}</style>
  </defs>
  <g
     id="Layer_2"
     data-name="Layer 2"
     transform="translate(0,65.227645)">
    <g
       id="Layer_1-2"
       data-name="Layer 1">
      <path
         class="cls-1"
         d="M 4.4,164.93 A 75.77,75.77 0 0 1 21.93,136 c 5.42,-5.55 11.3,-10.85 18,-14.79 7.27,-4.27 14.87,-5 23.12,-5.94 18.34,-2 36.82,-2 55.26,-1.79 15.86,0.2 31.72,0.59 47.59,0.12 0.24,0 7,-0.05 7.25,-0.12 1.51,-0.45 -4,4 -4,2.4 0,-8.13 0,-22.3 0,-30.59 -0.12,-20.48 5.2,-38.73 17.47,-55.83 C 201.76,8.39 227.73,0.05 252.76,0 q 93.12,0 186.5,0 c 16.3,0 30.77,9.28 40.48,21.9 12.78,16.59 18.1,40.79 18.34,61.44 0.1,8.14 0,29 0,36.92 0,1 -3.92,-5.57 -3.23,-4.89 0.69,0.68 -2.69,-2 -1.69,-1 0.69,0.68 -3.38,-0.7 -2.42,-0.7 h 79.56 c 8.71,0 17.45,-0.49 26.11,0.15 a 90.22,90.22 0 0 1 34.59,9.06 c 14.8,7.26 24.71,19.49 31.23,33.93 a 62,62 0 0 1 5.08,25.58 q -0.35,125.08 -0.14,250.19 v 102.84 c 0,14.66 -4.72,29.65 -14.15,41.13 C 642.8,589 626.5,596.77 611,600.25 a 82,82 0 0 1 -18,1.87 q -229.77,-0.14 -459.54,-0.06 c -20,0 -40,-0.59 -59.91,0.15 -19.4,0 -42.91,-0.82 -56.68,-16.58 a 53.86,53.86 0 0 1 -5.65,-7.85 C 6.72,570.2 3,561.7 1.67,553 0.42,544.75 0.46,536.43 0.42,528.16 -0.18,415.6 0,303 0.23,190.48 A 81.31,81.31 0 0 1 4.4,164.93 Z M 61.93,561.7 c 4.38,0.84 8.95,0.58 13.39,0.38 5.72,-0.25 11.42,0 17.14,0 h 223.9 89.32 q 44.63,0 89.25,0.06 44.62,0.06 89.2,0.09 h 7.59 c 12.12,0 26.5,-4 32.68,-14.76 6.6,-11.54 6.47,-29.46 6.16,-43 -0.76,-33.24 -0.26,-66.51 -0.26,-99.78 V 298.68 c 0,-2 9.91,3 -3.65,3 H 437.9 c -2,0 2.15,-3.69 2.06,-1.74 -1.12,23.91 -10.76,42.94 -34.57,44.13 h -15.9 c -39.44,0 -78.88,0.21 -118.32,-0.11 -12.33,-0.43 -25.59,-1.72 -34.25,-13.05 -5.73,-7.5 -6.32,-14.52 -6.64,-31.17 0,-2 4.2,1.83 2.22,1.83 H 38 c -2,0 2,-5.35 2,-3.34 v 19 q 0,95.19 0,190.37 c 0,11.73 1,24 4,35.41 2,7.65 6.25,14.67 13.92,17.63 a 22.91,22.91 0 0 0 4.01,1.06 z M 404.74,221.17 c 21.49,0.19 33.77,17.33 35.16,39.62 0.12,1.93 -5.19,0 -3.25,0 h 197.78 c 2,0 -4.12,5.71 -4.11,3.7 0,-1.36 0,-10 0,-11.33 -0.8,-26.6 2.66,-53.39 -4.14,-80.27 l -0.12,-0.4 c -3,-8.61 -10,-15 -18.68,-18.33 -7.12,-2.73 -15.33,-3.16 -23.11,-3.5 -12.27,-0.53 -412.34,-0.16 -434,-0.14 -17.42,0 -34.84,-0.05 -52.27,0 -10.42,0 -20.71,-0.06 -31.07,2.8 -12.25,3.39 -26.44,16.89 -26.71,29.57 -0.53,24.72 -0.2,57.29 -0.17,82 0,2 -5,-4.18 -3,-4.18 H 234 c 2,0 -3,2.77 -3,0.81 0.46,-14.9 4.37,-24.93 11.22,-30.86 7.79,-6.75 19.39,-9.9 31.54,-9.75 44.55,0.61 89.12,0.26 130.98,0.26 z m -196.36,-111 h 253.83 c 2,0 -1.33,3.55 -1.33,1.54 0,-11.69 0.15,-28.48 -0.24,-40.16 -0.31,-9.07 -1.35,-18.92 -8.41,-25.46 -7.72,-7.17 -21.17,-9.32 -31.31,-9.29 -57.26,0.18 -114.52,0.06 -171.78,0.15 -3.34,0 -6.53,0 -10.37,-0.15 -13.6,-0.37 -24,9.7 -27.74,22.22 -3.18,10.73 -1.59,23.31 -1.59,34.39 0,4.37 0.09,13.32 0,17.68 -0.1,4.18 -5.76,-0.92 -1.06,-0.94 z m 66.34,193.47 h 124.67 c 2,0 0,2.91 0,0.9 v -47.2 c 0,-2 2.91,0.59 0.9,0.59 -5.24,0 -12.51,0 -18.27,0 -33.7,0.22 -67.4,0.1 -100,0.1 -5.09,0 -10.78,0 -11.85,-0.06 -2.05,-0.06 0.84,-3.31 0.84,-1.25 v 46.9 c 0,2 -2.44,0 -0.42,0 z"
         id="path6" />
    </g>
  </g>
</svg>
