<?xml version="1.0" encoding="UTF-8" standalone="no"?>
<svg
   xmlns:dc="http://purl.org/dc/elements/1.1/"
   xmlns:cc="http://creativecommons.org/ns#"
   xmlns:rdf="http://www.w3.org/1999/02/22-rdf-syntax-ns#"
   xmlns:svg="http://www.w3.org/2000/svg"
   xmlns="http://www.w3.org/2000/svg"
   xmlns:sodipodi="http://sodipodi.sourceforge.net/DTD/sodipodi-0.dtd"
   xmlns:inkscape="http://www.inkscape.org/namespaces/inkscape"
   viewBox="0 0 662.34 662.34004"
   version="1.1"
   id="svg12"
   sodipodi:docname="office.svg"
   width="662.34003"
   height="662.34003"
   inkscape:version="1.0.2 (e86c870879, 2021-01-15)">
  <metadata
     id="metadata16">
    <rdf:RDF>
      <cc:Work
         rdf:about="">
        <dc:format>image/svg+xml</dc:format>
        <dc:type
           rdf:resource="http://purl.org/dc/dcmitype/StillImage" />
        <dc:title></dc:title>
      </cc:Work>
    </rdf:RDF>
  </metadata>
  <sodipodi:namedview
     pagecolor="#9e9e9e"
     bordercolor="#666666"
     borderopacity="1"
     objecttolerance="10"
     gridtolerance="10"
     guidetolerance="10"
     inkscape:pageopacity="0"
     inkscape:pageshadow="2"
     inkscape:window-width="1335"
     inkscape:window-height="1123"
     id="namedview14"
     showgrid="false"
     inkscape:pagecheckerboard="true"
     inkscape:zoom="0.81173994"
     inkscape:cx="279.7272"
     inkscape:cy="329.98088"
     inkscape:window-x="0"
     inkscape:window-y="27"
     inkscape:window-maximized="0"
     inkscape:current-layer="svg12" />
  <defs
     id="defs4">
    <style
       id="style2">.cls-1,.cls-2{fill:#fff;stroke:#fff;stroke-miterlimit:10;}.cls-1{stroke-width:7.96px;}.cls-2{stroke-width:7.89px;}</style>
  </defs>
  <g
     id="Layer_2"
     data-name="Layer 2"
     transform="translate(0,158.52833)">
    <g
       id="Layer_1-2"
       data-name="Layer 1">
      <path
         class="cls-1"
         d="m 4,201.75 q 0,123.38 0,246.73 c 0,3.19 0,6.37 0.14,9.56 A 39.82,39.82 0 0 0 14.92,484 c 9.87,11 22.49,15 37.12,15 q 139.53,-0.21 279.07,-0.07 c 92.05,0 184.11,-0.57 276.16,0.35 27.72,0.27 53.27,-17.17 50.94,-51 -0.92,-13.32 -0.15,-26.76 -0.15,-40.14 0,-68.8 -0.17,-137.6 -0.09,-206.4 z"
         id="path6" />
      <path
         class="cls-2"
         d="m 658.33,92.78 c 0.17,-26.08 -20,-47.81 -47.74,-46.19 -10.9,0.63 -21.88,0.1 -32.82,0.1 q -180.1,0 -360.21,0.13 h -31.17 l -63.82,-41 -2.4,3.53 c -0.89,-2 -1.12,-3.76 0.07,-5 l -0.11,-0.09 c -0.49,0 -1,0 -1.46,0 C 94.54,4 70.39,3.74 46.26,4.23 A 42.63,42.63 0 0 0 5.52,35.86 C 4.05,41.52 4,47.63 4,53.53 q 0,50.39 0,100.76 h 654.05 q 0.09,-30.76 0.28,-61.51 z"
         id="path8" />
    </g>
  </g>
</svg>
