<?xml version="1.0" encoding="UTF-8" standalone="no"?>
<svg
   xmlns:dc="http://purl.org/dc/elements/1.1/"
   xmlns:cc="http://creativecommons.org/ns#"
   xmlns:rdf="http://www.w3.org/1999/02/22-rdf-syntax-ns#"
   xmlns:svg="http://www.w3.org/2000/svg"
   xmlns="http://www.w3.org/2000/svg"
   xmlns:sodipodi="http://sodipodi.sourceforge.net/DTD/sodipodi-0.dtd"
   xmlns:inkscape="http://www.inkscape.org/namespaces/inkscape"
   viewBox="0 0 667.33 667.32999"
   version="1.1"
   id="svg3808"
   sodipodi:docname="plan.svg"
   width="667.33002"
   height="667.33002"
   inkscape:version="1.0.2 (e86c870879, 2021-01-15)">
  <metadata
     id="metadata3812">
    <rdf:RDF>
      <cc:Work
         rdf:about="">
        <dc:format>image/svg+xml</dc:format>
        <dc:type
           rdf:resource="http://purl.org/dc/dcmitype/StillImage" />
        <dc:title></dc:title>
      </cc:Work>
    </rdf:RDF>
  </metadata>
  <sodipodi:namedview
     pagecolor="#9c9c9c"
     bordercolor="#666666"
     borderopacity="1"
     objecttolerance="10"
     gridtolerance="10"
     guidetolerance="10"
     inkscape:pageopacity="0"
     inkscape:pageshadow="2"
     inkscape:window-width="1786"
     inkscape:window-height="1299"
     id="namedview3810"
     showgrid="false"
     inkscape:pagecheckerboard="true"
     inkscape:zoom="0.95931024"
     inkscape:cx="252.41767"
     inkscape:cy="317.43019"
     inkscape:window-x="0"
     inkscape:window-y="27"
     inkscape:window-maximized="0"
     inkscape:current-layer="svg3808" />
  <defs
     id="defs3742">
    <style
       id="style3740">.cls-1{fill:#fff;}.cls-2{fill:none;}</style>
  </defs>
  <path
     class="cls-1"
     d="M 632.84,366.87764 Z"
     id="path3744" />
  <path
     class="cls-1"
     d="m 630.3,366.87764 v -0.17 a 32.85,32.85 0 0 1 -3.65,0.17 z"
     id="path3746" />
  <path
     class="cls-1"
     d="m 630.32,326.01764 h 3.47 v -0.05 h -3.47 z"
     id="path3748" />
  <path
     class="cls-2"
     d="m 399.39,322.56764 v 0.58 h 0.89 c 2.02,0.01 -0.89,-2.59 -0.89,-0.58 z"
     id="path3750" />
  <path
     class="cls-2"
     d="M 270.13,323.22764 H 271 v -1.26 c 0,-2.08 -2.92,1.17 -0.87,1.26 z"
     id="path3752" />
  <path
     class="cls-2"
     d="m 230.27,364.93764 c 0,0.61 0,1.19 0,1.77 h 2.5 c 1.15,-0.48 -2.53,-3.63 -2.5,-1.77 z"
     id="path3754" />
  <path
     class="cls-2"
     d="m 439.9,326.01764 h -3.26 c -1.93,0 3.36,1.93 3.26,0 z"
     id="path3756" />
  <path
     class="cls-2"
     d="m 440,365.13764 c 0.08,-1.69 -3,0.88 -2.54,1.57 h 2.44 c 0,-0.48 0.03,-1.04 0.1,-1.57 z"
     id="path3758" />
  <path
     class="cls-2"
     d="m 234,325.96764 h -3 c 0,0.27 0,0.53 0,0.81 -0.08,1.96 4.92,-0.81 3,-0.81 z"
     id="path3760" />
  <path
     class="cls-1"
     d="m 462.21,175.37764 h -1.33 v 1.54 c 0,2.01 3.34,-1.54 1.33,-1.54 z"
     id="path3762" />
  <path
     class="cls-2"
     d="m 460.63,136.75764 c -0.3,-9.07 -1.34,-18.92 -8.4,-25.46 -7.73,-7.17 -21.17,-9.32 -31.32,-9.29 -57.25,0.18 -114.51,0.06 -171.77,0.15 -3.34,0 -6.53,0 -10.37,-0.15 -13.61,-0.37 -24,9.7 -27.74,22.22 -3.18,10.73 -1.6,23.31 -1.6,34.39 0,4.08 0.09,12.15 0,16.76 h 251.45 c 0.01,-11.59 0.12,-27.44 -0.25,-38.62 z"
     id="path3764" />
  <path
     class="cls-1"
     d="m 493.18,179.58764 c -0.77,-0.77 1.06,0.67 1.62,1 0,-0.08 0,-0.1 0.06,0 0.06,0.1 0.11,0.15 -0.06,0 0.2,0.64 3.3,5.72 3.3,4.86 0,-1.69 0,-4 0,-6.61 h -7.35 c -0.96,0.05 3.11,1.39 2.43,0.75 z"
     id="path3766" />
  <path
     class="cls-1"
     d="m 494.86,180.60764 c -0.07,-0.07 -0.08,0 -0.06,0 0.02,0 0.2,0.17 0.06,0 z"
     id="path3768" />
  <path
     class="cls-2"
     d="m 439.9,326.01764 c 0.12,1.93 -5.19,0 -3.26,0 h 3.26 c -1.39,-22.29 -13.67,-39.43 -35.16,-39.62 -41.86,0 -86.44,0.35 -131,-0.23 -12.15,-0.15 -23.75,3 -31.55,9.75 -6.72,5.82 -10.6,15.6 -11.17,30.05 H 234 c 2,0 -3,2.77 -3,0.81 0,-0.28 0,-0.54 0,-0.81 H 107.74 v 40.74 h 122.57 c 0,-0.58 0,-1.16 0,-1.77 0,-1.86 3.65,1.33 2.54,1.77 H 271 v -43.48 h -0.84 c -2.05,-0.06 0.84,-3.31 0.84,-1.25 v 1.25 c 2,0 6.71,0 11,0 32.64,0 66.34,0.12 100,-0.1 5.44,0 12.21,0 17.37,0 v -0.58 c 0,-2 2.91,0.59 0.89,0.59 h -0.89 v 43.56 h 38 c -0.48,-0.69 2.62,-3.26 2.54,-1.57 0,0.53 -0.06,1 -0.1,1.57 h 44.55 v -40.68 z"
     id="path3770" />
  <path
     class="cls-1"
     d="m 173.15,178.72764 c -0.14,0 -2.14,0.07 -4,0.09 v 2.31 c -0.01,1.58 5.51,-2.85 4,-2.4 z"
     id="path3772" />
  <path
     class="cls-1"
     d="m 209.43,176.29764 c 0,-0.29 0,-0.6 0,-0.92 h -1.07 c -4.69,0.02 0.98,5.12 1.07,0.92 z"
     id="path3774" />
  <path
     class="cls-1"
     d="m 423.93,215.59764 160.32796,29.07745 v 81.29255 H 667.2 c 0,-26.12 0.0433,-52.23667 0.13,-78.35 0.13942,-8.7904 -1.59222,-17.50994 -5.08,-25.58 -6.52,-14.44 -16.43,-26.67 -31.23,-33.93 -10.81289,-5.30096 -22.57714,-8.38482 -34.6,-9.07 -8.65,-0.64 -17.4,-0.15 -26.1,-0.15 h -72.21 v 6.61 c 0,0.86 -3.1,-4.22 -3.3,-4.86 -0.56,-0.38 -2.39,-1.82 -1.62,-1 0.77,0.82 -3.39,-0.7 -2.42,-0.7 h 7.35 v -30.31 c -0.24,-20.65 -5.56,-44.85 -18.34,-61.439995 -9.78,-12.67 -24.22,-21.96 -40.52,-21.96 H 252.75 c -25,0 -51,8.36 -66.14,29.45 -12.28,17.099995 -17.6,35.349995 -17.48,55.829995 0.05,7.56 0,20 0,28.28 1.87,0 3.87,0 4,-0.09 1.51,-0.45 -4,4 -4,2.4 v -2.31 h -3.25 c -15.86,0.47 -31.73,0.08 -47.59,-0.12 -18.43,-0.22 -36.91,-0.18 -55.26,1.79 -8.25,0.89 -15.84,1.67 -23.11,5.94 -6.71,3.94 -12.59,9.24 -18,14.79 -7.953585,8.20909 -13.9435715,18.11377 -17.52,28.97 -2.7541967,8.23747 -4.16555391,16.86431 -4.18,25.55 l -0.14,70.26 h 98.954044 v -81.29255 z m -215.55,-40.22 h 1.07 c 0.07,-4.61 0,-12.68 0,-16.76 0,-11.08 -1.58,-23.66 1.6,-34.39 3.71,-12.52 14.13,-22.59 27.74,-22.22 3.84,0.1 7,0.15 10.37,0.15 57.26,-0.09 114.52,0 171.77,-0.15 10.15,0 23.59,2.12 31.32,9.29 7.06,6.54 8.1,16.39 8.4,25.46 0.38,11.18 0.26,27 0.25,38.62 h 1.33 c 2,0 -1.33,3.55 -1.33,1.54 v -1.54 H 209.45 v 0.92 c -0.11,4.2 -5.78,-0.9 -1.07,-0.92 z"
     id="path3776"
     sodipodi:nodetypes="ccccccccscscsscccssccccsccccccccccccccscccccccsscccc" />
  <path
     class="cls-1"
     d="M 97.914663,591.83601 V 366.87764 H 0 c -0.06,75.51333 0.07666667,151.01667 0.41,226.51 0.05,8.27 0,16.59 1.26,24.79 1.33,8.75 5.05,17.25 9.57,24.83 1.640703,2.78303 3.531874,5.41059 5.65,7.85 13.77,15.76 37.28,16.58 56.68,16.58 19.94,-0.74 39.94,-0.15 59.91,-0.15 153.18,0 306.35667,0.02 459.53,0.06 6.05059,0.0422 12.08729,-0.58495 18,-1.87 15.52,-3.48 31.83,-11.25 42.06,-23.7 9.44,-11.48 14.16,-26.47 14.16,-41.13 v -102.84 -130.93 h -64.61411 v 224.95837 z"
     id="path3778"
     sodipodi:nodetypes="ccccccccscccsccccc" />
  <path
     class="cls-1"
     d="m 242.19,295.91764 c 7.8,-6.75 19.4,-9.9 31.55,-9.75 44.56,0.58 89.14,0.23 131,0.23 21.49,0.19 33.77,17.33 35.16,39.62 h 44.51 v -0.05 h 145.91 c 0,-3 0,-6.75 0,-7.58 -0.81,-26.6 2.66,-53.39 -4.15,-80.27 0,-0.13 -0.07,-0.27 -0.11,-0.4 -3,-8.61 -10,-15 -18.69,-18.33 -7.11,-2.73 -15.32,-3.16 -23.1,-3.5 -5.08,-0.22 -76.65,-0.28 -160.31,-0.29 -118.4,0 -261,0.14 -273.69,0.15 -17.43,0 -34.85,-0.05 -52.27,0 -10.42,0 -20.71,-0.06 -31.07,2.8 -12.25,3.39 -26.44,16.89 -26.72,29.57 -0.5,23.36 -0.23,53.7 -0.17,77.83 H 231 c 0.59,-14.43 4.47,-24.21 11.19,-30.03 z"
     id="path3780" />
  <path
     class="cls-1"
     d="m 399.39,323.14764 c -5.16,0 -11.93,0 -17.37,0 -33.7,0.22 -67.4,0.1 -100,0.1 -4.3,0 -9,0 -11,0 v 43.5 h 128.37 z"
     id="path3782" />
  <path
     class="cls-1"
     d="m 484.41,326.01764 h 145.91 v -0.05 H 484.41 Z"
     id="path3788" />
  <polygon
     class="cls-1"
     points="40.02,301.65 40.02,301.54 107.74,301.54 107.74,301.49 21.11,301.49 21.11,301.65 37.47,301.65 "
     id="polygon3790"
     transform="translate(0,65.227645)" />
  <path
     class="cls-1"
     d="m 630.56,569.76764 c 0.31,13.55 0.44,31.47 -6.16,43 -6.19,10.79 -20.57,14.78 -32.69,14.76 h -7.58 q -44.6,-0.06 -89.2,-0.09 -44.6,-0.03 -89.25,-0.06 H 316.36 92.45 c -5.72,0 -11.42,-0.3 -17.14,0 -4.44,0.2 -9,0.46 -13.38,-0.38 a 22.67,22.67 0 0 1 -4,-1.12 c -7.67,-3.03 -11.93,-10.05 -13.93,-17.65 -3,-11.38 -3.95,-23.68 -4,-35.41 q -0.11,-95.19 0,-190.37 v -15.57 h -2.53 v 260.66 h 596.32 v -260.66 h -3.49 v 103.11 c 0,33.24 -0.5,66.54 0.26,99.78 z"
     id="path3792" />
  <path
     class="cls-1"
     d="m 439.85,366.87764 h 44.56 v -0.17 h -44.55 a 0.91,0.91 0 0 1 -0.01,0.17 z"
     id="path3794" />
  <path
     class="cls-1"
     d="m 230.31,366.76764 v -0.06 H 107.74 v 0.06 z"
     id="path3796" />
  <path
     class="cls-1"
     d="m 405.38,409.22764 h -15.9 c -39.44,0 -78.87,0.21 -118.31,-0.11 -12.33,-0.43 -25.59,-1.72 -34.25,-13.05 -5.51,-7.22 -6.27,-14 -6.61,-29.34 H 107.74 v 0.11 H 40 v 15.52 q 0,95.19 0,190.37 c 0,11.73 1,24 4,35.41 2,7.65 6.25,14.67 13.92,17.63 a 22.67,22.67 0 0 0 4,1.12 c 4.37,0.84 8.94,0.58 13.38,0.38 5.72,-0.25 11.42,0 17.14,0 h 223.92 89.32 q 44.63,0 89.25,0.06 44.62,0.06 89.2,0.09 h 7.58 c 12.12,0 26.5,-4 32.69,-14.76 6.6,-11.54 6.47,-29.46 6.16,-43 -0.76,-33.24 -0.26,-66.51 -0.26,-99.78 v -103 H 439.85 c -1.5,23.08 -11.24,41.23 -34.47,42.35 z"
     id="path3800" />
  <path
     class="cls-1"
     d="m 274.72,368.84764 h 124.67 v -2.14 H 271 v 2.14 z"
     id="path3802" />
  <rect
     class="cls-1"
     x="40.02"
     y="366.76764"
     width="67.720001"
     height="0.12"
     id="rect3804" />
</svg>
