<?xml version="1.0" encoding="UTF-8" standalone="no"?>
<svg
   xmlns:dc="http://purl.org/dc/elements/1.1/"
   xmlns:cc="http://creativecommons.org/ns#"
   xmlns:rdf="http://www.w3.org/1999/02/22-rdf-syntax-ns#"
   xmlns:svg="http://www.w3.org/2000/svg"
   xmlns="http://www.w3.org/2000/svg"
   xmlns:sodipodi="http://sodipodi.sourceforge.net/DTD/sodipodi-0.dtd"
   xmlns:inkscape="http://www.inkscape.org/namespaces/inkscape"
   viewBox="0 0 86.06 63.56"
   version="1.1"
   id="svg2719"
   sodipodi:docname="businessmodel.svg"
   inkscape:version="1.0.2 (e86c870879, 2021-01-15)">
  <metadata
     id="metadata2723">
    <rdf:RDF>
      <cc:Work
         rdf:about="">
        <dc:format>image/svg+xml</dc:format>
        <dc:type
           rdf:resource="http://purl.org/dc/dcmitype/StillImage" />
      </cc:Work>
    </rdf:RDF>
  </metadata>
  <sodipodi:namedview
     pagecolor="#ffffff"
     bordercolor="#666666"
     borderopacity="1"
     objecttolerance="10"
     gridtolerance="10"
     guidetolerance="10"
     inkscape:pageopacity="0"
     inkscape:pageshadow="2"
     inkscape:window-width="1909"
     inkscape:window-height="1234"
     id="namedview2721"
     showgrid="false"
     inkscape:zoom="9.0891477"
     inkscape:cx="24.316691"
     inkscape:cy="24.828656"
     inkscape:window-x="0"
     inkscape:window-y="27"
     inkscape:window-maximized="0"
     inkscape:current-layer="svg2719" />
  <defs
     id="defs2663">
    <style
       id="style2661">.cls-1,.cls-2{fill:#9eb99d;}.cls-1,.cls-4{stroke:#9eb99d;}.cls-1,.cls-3,.cls-4{stroke-miterlimit:10;stroke-width:3px;}.cls-3,.cls-4{fill:none;}.cls-3{stroke:#607882;}</style>
  </defs>
  <path
     class="cls-1"
     d="M 59.37,6.94 26.67,6.52"
     id="path2665"
     style="stroke:#46aebb;stroke-opacity:1;fill:none;fill-opacity:1" />
  <path
     class="cls-2"
     d="m 29.5,2.42 a 12.74,12.74 0 0 0 -3.82,3.49 1.47,1.47 0 0 0 -0.15,1.16 1.52,1.52 0 0 0 0.68,0.89 1.47,1.47 0 0 0 1.16,0.15 L 27.73,8 a 1.55,1.55 0 0 0 0.54,-0.54 1.13,1.13 0 0 1 0.1,-0.13 l -0.24,0.3 a 11.93,11.93 0 0 1 2,-2 L 29.82,5.87 A 12.9,12.9 0 0 1 31,5 1.55,1.55 0 0 0 31.69,4.1 1.53,1.53 0 0 0 31.55,3 1.51,1.51 0 0 0 30.65,2.31 1.54,1.54 0 0 0 29.5,2.46 Z"
     id="path2667"
     style="stroke:#46aebb;stroke-opacity:1;fill:#46aebb;fill-opacity:1" />
  <path
     class="cls-2"
     d="m 25.88,7.76 3.23,3.4 a 1.54,1.54 0 0 0 1.06,0.44 1.58,1.58 0 0 0 1.06,-0.44 1.54,1.54 0 0 0 0,-2.12 L 28,5.64 A 1.56,1.56 0 0 0 26.94,5.2 1.5,1.5 0 0 0 25.88,7.76 Z"
     id="path2669"
     style="stroke:#46aebb;stroke-opacity:1;fill:#46aebb;fill-opacity:1" />
  <path
     class="cls-3"
     d="m 15.13,1.5 a 5.67,5.67 0 0 0 -5.2,3 6,6 0 0 0 1,6.49 c 1.79,2.05 5.23,3.11 7.65,1.45 2.05,-1.41 2.45,-4.14 2,-6.07 A 6.15,6.15 0 0 0 15.13,1.5 Z"
     id="path2671"
     style="stroke:#412a6c;stroke-opacity:1" />
  <path
     class="cls-4"
     d="m 58.91,13.12 a 32.64,32.64 0 0 0 -13.12,7 c -4.36,3.9 -5.58,7.32 -9.94,13.33 A 85.51,85.51 0 0 1 23.57,47"
     id="path2673"
     style="stroke:#46aebb;stroke-opacity:1" />
  <path
     class="cls-2"
     d="m 22.38,41.34 v 5.6 a 1.5,1.5 0 0 0 3,0 v -5.6 a 1.5,1.5 0 0 0 -3,0 z"
     id="path2675"
     style="stroke:#46aebb;stroke-opacity:1;fill:#46aebb;fill-opacity:1" />
  <path
     class="cls-2"
     d="m 23.88,48.56 a 21.82,21.82 0 0 0 6.26,-1 1.5,1.5 0 0 0 -0.8,-2.89 19.92,19.92 0 0 1 -2.84,0.69 l -0.38,0.06 c -0.11,0 -0.42,0 0,0 -0.23,0 -0.48,0.06 -0.71,0.08 -0.5,0.05 -1,0.07 -1.49,0.08 a 1.5,1.5 0 1 0 0,3 z"
     id="path2677"
     style="stroke:#46aebb;stroke-opacity:1;fill:#46aebb;fill-opacity:1" />
  <path
     class="cls-3"
     d="M 73.21,6.8 A 6,6 0 0 0 68.57,4.1 6.14,6.14 0 0 0 63.47,7 c -1.23,1.92 -1.66,5 0,7 2.12,2.55 6.75,2.34 9,-0.23 A 6,6 0 0 0 73.21,6.8 Z"
     id="path2679"
     style="stroke:#412a6c;stroke-opacity:1" />
  <path
     class="cls-3"
     d="m 16.43,50.19 c 2.87,0.31 4.57,3 4.88,5.24 0.31,2.24 -0.46,5 -2.89,6.15 -2.43,1.15 -5.6,-0.11 -7.06,-2.17 A 6.22,6.22 0 0 1 10.64,54 5.74,5.74 0 0 1 16.43,50.19 Z"
     id="path2681"
     style="stroke:#412a6c;stroke-opacity:1" />
  <path
     class="cls-3"
     d="m 71,26.78 a 5.85,5.85 0 0 0 -6.37,1.1 6.09,6.09 0 0 0 -1.76,5.05 A 5.88,5.88 0 0 0 68,37.76 5.79,5.79 0 0 0 73.71,34.91 6,6 0 0 0 71,26.78 Z"
     id="path2683"
     style="stroke:#412a6c;stroke-opacity:1" />
  <path
     class="cls-4"
     d="M 60.18,28 A 39.15,39.15 0 0 0 48.62,23.89 c -8.19,-1.5 -12.59,0.53 -19.54,-2 A 25.5,25.5 0 0 1 21,17.12"
     id="path2685"
     style="stroke:#46aebb;stroke-opacity:1;fill:none;fill-opacity:1" />
  <path
     class="cls-2"
     d="m 19.53,17.34 0.21,4.81 a 1.5,1.5 0 0 0 3,0 l -0.21,-4.81 a 1.5,1.5 0 0 0 -3,0 z"
     id="path2687"
     style="stroke:#46aebb;stroke-opacity:1;fill:#46aebb;fill-opacity:1" />
  <path
     class="cls-2"
     d="m 21.66,18.83 a 15.34,15.34 0 0 0 4.77,-0.39 1.5,1.5 0 0 0 -0.8,-2.89 c -0.46,0.11 -0.92,0.19 -1.39,0.26 l 0.4,-0.06 a 14.15,14.15 0 0 1 -3,0.08 1.5,1.5 0 0 0 -1.06,0.44 1.47,1.47 0 0 0 -0.44,1.06 1.52,1.52 0 0 0 1.5,1.5 z"
     id="path2689"
     style="stroke:#46aebb;stroke-opacity:1;fill:#46aebb;fill-opacity:1" />
  <path
     class="cls-4"
     d="M 26.57,54.58 60,37.73"
     id="path2691"
     style="stroke:#46aebb;stroke-opacity:1;fill:none;fill-opacity:1" />
  <path
     class="cls-2"
     d="M 60.3,36.54 56.11,34.63 A 1.64,1.64 0 0 0 55,34.48 a 1.56,1.56 0 0 0 -0.9,0.69 1.52,1.52 0 0 0 -0.15,1.16 1.44,1.44 0 0 0 0.69,0.89 l 4.18,1.91 a 1.62,1.62 0 0 0 1.16,0.15 1.49,1.49 0 0 0 0.9,-0.69 1.54,1.54 0 0 0 0.12,-1.15 1.49,1.49 0 0 0 -0.69,-0.9 z"
     id="path2693"
     style="stroke:#46aebb;stroke-opacity:1;fill:#46aebb;fill-opacity:1" />
  <path
     class="cls-2"
     d="M 58.15,37.47 A 25.5,25.5 0 0 1 57,42.19 1.51,1.51 0 0 0 58.09,44 1.53,1.53 0 0 0 59.93,43 25.4,25.4 0 0 0 61,38.27 a 1.67,1.67 0 0 0 -0.15,-1.16 1.51,1.51 0 0 0 -2,-0.53 1.43,1.43 0 0 0 -0.69,0.89 z"
     id="path2695"
     style="stroke:#46aebb;stroke-opacity:1;fill:#46aebb;fill-opacity:1" />
  <path
     class="cls-2"
     d="M 28.38,54.83 A 18.68,18.68 0 0 1 29.33,52 l -0.15,0.36 c 0.16,-0.39 0.33,-0.76 0.52,-1.14 A 1.59,1.59 0 0 0 29.85,50.07 1.52,1.52 0 0 0 29.16,49.17 1.54,1.54 0 0 0 28,49 1.49,1.49 0 0 0 27.1,49.69 21,21 0 0 0 25.49,54 a 1.5,1.5 0 0 0 1,1.85 1.54,1.54 0 0 0 1.85,-1.05 z"
     id="path2697"
     style="stroke:#46aebb;stroke-opacity:1;fill:#46aebb;fill-opacity:1" />
  <path
     class="cls-2"
     d="m 27,55.82 c 0.41,0 0.82,0.08 1.23,0.14 l -0.4,-0.06 a 26,26 0 0 1 3.38,0.7 1.5,1.5 0 0 0 0.79,-2.89 26.47,26.47 0 0 0 -5,-0.89 1.5,1.5 0 0 0 -1.06,0.44 1.52,1.52 0 0 0 -0.44,1.06 1.46,1.46 0 0 0 0.44,1.06 1.59,1.59 0 0 0 1.06,0.44 z"
     id="path2699"
     style="stroke:#46aebb;stroke-opacity:1;fill:#46aebb;fill-opacity:1" />
  <path
     class="cls-3"
     d="m 63.17,51.6 a 5.69,5.69 0 0 1 3.69,-3 6,6 0 0 1 6.82,3 5.75,5.75 0 0 1 -0.92,6.27 5.67,5.67 0 0 1 -5.17,1.85 C 64.14,59.05 61.87,54.67 63.17,51.6 Z"
     id="path2701"
     style="stroke:#412a6c;stroke-opacity:1" />
  <path
     class="cls-4"
     d="M 79,54.14 C 80.41,52 86.4,42.36 84,30.06 A 31.71,31.71 0 0 0 76.85,15.5"
     id="path2703"
     style="stroke:#46aebb;stroke-opacity:1;fill:none;fill-opacity:1" />
  <path
     class="cls-2"
     d="m 75.7,15.91 -0.22,4.36 a 1.52,1.52 0 0 0 1.5,1.5 1.54,1.54 0 0 0 1.5,-1.5 l 0.22,-4.36 a 1.5,1.5 0 1 0 -3,0 z"
     id="path2705"
     style="stroke:#46aebb;stroke-opacity:1;fill:#46aebb;fill-opacity:1" />
  <path
     class="cls-2"
     d="m 77.13,17.29 5,2 a 1.48,1.48 0 0 0 1.16,-0.15 1.53,1.53 0 0 0 0.69,-0.89 1.56,1.56 0 0 0 -0.15,-1.16 1.76,1.76 0 0 0 -0.9,-0.69 l -5,-2 a 1.48,1.48 0 0 0 -1.16,0.15 1.5,1.5 0 0 0 -0.53,2.05 1.7,1.7 0 0 0 0.89,0.69 z"
     id="path2707"
     style="stroke:#46aebb;stroke-opacity:1;fill:#46aebb;fill-opacity:1" />
  <path
     class="cls-3"
     d="m 16.23,27 a 6.48,6.48 0 0 1 4.07,2.71 6,6 0 0 1 0,6.55 c -2.24,2.85 -8,2.31 -10.16,-0.91 -1.3,-1.9 -1.56,-5 0.22,-7 2.04,-2.27 5.41,-1.5 5.87,-1.35 z"
     id="path2709"
     style="stroke:#412a6c;stroke-opacity:1" />
  <path
     class="cls-4"
     d="m 6.77,27 a 8.39,8.39 0 0 1 -5.23,-8.45 8.26,8.26 0 0 1 5,-6.64"
     id="path2711"
     style="stroke:#46aebb;stroke-opacity:1;fill:none;fill-opacity:1" />
  <path
     class="cls-2"
     d="M 6.11,10.63 1.68,10.18 a 1.56,1.56 0 0 0 -1.06,0.44 1.52,1.52 0 0 0 -0.44,1.06 1.54,1.54 0 0 0 0.44,1.06 1.66,1.66 0 0 0 1.06,0.44 l 4.43,0.45 a 1.5,1.5 0 0 0 1.5,-1.5 1.54,1.54 0 0 0 -0.44,-1.06 1.66,1.66 0 0 0 -1.06,-0.44 z"
     id="path2713"
     style="stroke:#46aebb;stroke-opacity:1;fill:#46aebb;fill-opacity:1" />
  <path
     class="cls-2"
     d="M 4.61,12.74 A 19.89,19.89 0 0 0 5,16.35 1.5,1.5 0 0 0 5.69,17.24 1.57,1.57 0 0 0 6.85,17.4 1.54,1.54 0 0 0 7.74,16.71 1.73,1.73 0 0 0 7.9,15.55 C 7.84,15.25 7.79,14.94 7.75,14.63 v 0.4 A 17.5,17.5 0 0 1 7.6,12.74 1.63,1.63 0 0 0 7.16,11.68 1.56,1.56 0 0 0 6.1,11.24 1.52,1.52 0 0 0 4.6,12.74 Z"
     id="path2715"
     style="stroke:#46aebb;stroke-opacity:1;fill:#46aebb;fill-opacity:1" />
</svg>
